<?xml version="1.0" encoding="utf-8"?>
<!-- Generator: Adobe Illustrator 23.0.3, SVG Export Plug-In . SVG Version: 6.00 Build 0)  -->
<svg version="1.1" id="Calque_1" xmlns="http://www.w3.org/2000/svg" xmlns:xlink="http://www.w3.org/1999/xlink" x="0px" y="0px"
	 viewBox="0 0 165.4 151.5" style="enable-background:new 0 0 165.4 151.5;" xml:space="preserve">
<style type="text/css">
	.st0{fill:#9AC43A;}
</style>
<g id="environnement">
	<path class="st0" d="M45.5,39.4c0.5-0.5,0.4-1.2,0-1.6L29.5,22c-0.5-0.5-1.2-0.4-1.6,0s-0.4,1.2,0,1.6l16,15.8
		C44.3,39.9,45.1,39.9,45.5,39.4z"/>
	<path class="st0" d="M60.4,35.4c0.2-0.2,0.3-0.5,0.3-0.8L62,12.1c0-0.6-0.5-1.2-1.1-1.2c-0.6,0-1.2,0.5-1.2,1.1l-1.2,22.5
		c0,0.6,0.5,1.2,1.1,1.2C59.9,35.7,60.2,35.6,60.4,35.4z"/>
	<path class="st0" d="M40.1,55.1c0.3,0,0.6-0.1,0.7-0.3c0.2-0.2,0.4-0.5,0.3-0.9c0-0.6-0.6-1.1-1.2-1.1l-22.5,1.5
		c-0.6,0-1.1,0.6-1.1,1.2c0,0.6,0.6,1.1,1.2,1.1L40.1,55.1z"/>
	<path class="st0" d="M148.7,138.6L133.8,124l5.6-43.5c0-0.4-0.1-0.7-0.3-1L97.1,38.3c-0.3-0.3-0.6-0.4-1-0.3l-44.4,5.7
		c-0.5,0.1-0.9,0.5-1,1l-5.2,44.3c0,0.4,0.1,0.7,0.3,1l41.4,41.4c0.2,0.2,0.5,0.3,0.8,0.3c0,0,0.1,0,0.1,0l44.3-5.7l14.5,14.4
		c0.2,0.2,0.5,0.3,0.8,0.3c0.3,0,0.6-0.1,0.8-0.3C149.1,139.8,149.1,139.1,148.7,138.6z M88.5,129.3L47.9,88.7l5-42.8l43-5.5
		l41.2,40.5l-5.3,41.2l-18.6-18.4l3.5-33.4c0.1-0.6-0.4-1.2-1-1.3c-0.7-0.1-1.2,0.4-1.3,1l-3.3,31.6L93.6,84.2l3.5-33.3
		c0.1-0.6-0.4-1.2-1-1.3c-0.7-0.1-1.2,0.4-1.3,1l-3.3,31.5L74.9,65.7l1.7-15.1c0.1-0.6-0.4-1.2-1-1.3c-0.7-0.1-1.2,0.4-1.3,1
		l-1.5,13.3L61.1,52c-0.5-0.5-1.2-0.4-1.6,0s-0.4,1.2,0,1.6L71,65.1l-12.9,1c-0.6,0-1.1,0.6-1.1,1.2c0,0.6,0.6,1.1,1.2,1.1
		c0,0,0.1,0,0.1,0l14.9-1.2l16.6,16.4l-34.1,2.5c-0.6,0-1.1,0.6-1.1,1.2c0,0.6,0.6,1.1,1.2,1.1c0,0,0.1,0,0.1,0L92,85.8l17.6,17.4
		L78,107.1c-0.6,0.1-1.1,0.7-1,1.3c0.1,0.6,0.6,1,1.1,1c0,0,0.1,0,0.1,0l33.4-4.1l18.8,18.6L88.5,129.3z"/>
</g>
</svg>
