<?xml version="1.0" encoding="utf-8"?>
<!-- Generator: Adobe Illustrator 23.0.3, SVG Export Plug-In . SVG Version: 6.00 Build 0)  -->
<svg version="1.1" id="Calque_1" xmlns="http://www.w3.org/2000/svg" xmlns:xlink="http://www.w3.org/1999/xlink" x="0px" y="0px"
	 viewBox="0 0 165.4 151.5" style="enable-background:new 0 0 165.4 151.5;" xml:space="preserve">
<style type="text/css">
	.st0{fill:#9AC43A;}
</style>
<g id="intergénérationnel">
	<path class="st0" d="M80.3,105.2c-3.9,0-7.1-3.2-7.1-7.1c0-3.9,3.2-7.1,7.1-7.1c3.9,0,7.1,3.2,7.1,7.1
		C87.4,102,84.2,105.2,80.3,105.2z M80.3,93.4c-2.6,0-4.7,2.1-4.7,4.7c0,2.6,2.1,4.7,4.7,4.7c2.6,0,4.7-2.1,4.7-4.7
		C85,95.5,82.9,93.4,80.3,93.4z"/>
	<path class="st0" d="M98.9,105.2c-3.9,0-7.1-3.2-7.1-7.1c0-3.9,3.2-7.1,7.1-7.1c3.9,0,7.1,3.2,7.1,7.1
		C106,102,102.8,105.2,98.9,105.2z M98.9,93.4c-2.6,0-4.7,2.1-4.7,4.7c0,2.6,2.1,4.7,4.7,4.7c2.6,0,4.7-2.1,4.7-4.7
		C103.7,95.5,101.6,93.4,98.9,93.4z"/>
	<path class="st0" d="M118.1,105.2c-3.9,0-7.1-3.2-7.1-7.1c0-3.9,3.2-7.1,7.1-7.1c3.9,0,7.1,3.2,7.1,7.1
		C125.1,102,122,105.2,118.1,105.2z M118.1,93.4c-2.6,0-4.7,2.1-4.7,4.7c0,2.6,2.1,4.7,4.7,4.7c2.6,0,4.7-2.1,4.7-4.7
		C122.8,95.5,120.7,93.4,118.1,93.4z"/>
	<path class="st0" d="M123.3,145.7c-0.3,0-0.6-0.1-0.8-0.3l-26.3-23.9H52.9c-0.6,0-1.2-0.5-1.2-1.2V40.5c0-0.6,0.5-1.2,1.2-1.2h93.8
		c0.6,0,1.2,0.5,1.2,1.2v79.7c0,0.6-0.5,1.2-1.2,1.2h-22.3v23c0,0.5-0.3,0.9-0.7,1.1C123.7,145.6,123.5,145.7,123.3,145.7z
		 M54.1,119.1h42.6c0.3,0,0.6,0.1,0.8,0.3l24.7,22.4v-21.6c0-0.6,0.5-1.2,1.2-1.2h22.3V41.7H54.1V119.1z"/>
	<path class="st0" d="M46.6,34.4c0.5-0.5,0.4-1.2,0-1.6l-16-15.8c-0.5-0.5-1.2-0.4-1.6,0c-0.5,0.5-0.4,1.2,0,1.6l16,15.8
		C45.4,34.9,46.1,34.9,46.6,34.4z"/>
	<path class="st0" d="M61.5,30.3c0.2-0.2,0.3-0.5,0.3-0.8l1.2-22.5c0-0.6-0.5-1.2-1.1-1.2c-0.6,0-1.2,0.5-1.2,1.1l-1.2,22.5
		c0,0.6,0.5,1.2,1.1,1.2C61,30.7,61.3,30.6,61.5,30.3z"/>
	<path class="st0" d="M41.2,50.1c0.3,0,0.6-0.1,0.7-0.3c0.2-0.2,0.4-0.5,0.3-0.9c0-0.6-0.6-1.1-1.2-1.1l-22.5,1.5
		c-0.6,0-1.1,0.6-1.1,1.2c0,0.6,0.6,1.1,1.2,1.1L41.2,50.1z"/>
</g>
</svg>
