<?xml version="1.0" encoding="utf-8"?>
<!-- Generator: Adobe Illustrator 23.0.3, SVG Export Plug-In . SVG Version: 6.00 Build 0)  -->
<svg version="1.1" id="Calque_1" xmlns="http://www.w3.org/2000/svg" xmlns:xlink="http://www.w3.org/1999/xlink" x="0px" y="0px"
	 viewBox="0 0 165.4 151.5" style="enable-background:new 0 0 165.4 151.5;" xml:space="preserve">
<style type="text/css">
	.st0{fill:#9AC43A;}
</style>
<g id="social">
	<path class="st0" d="M52.7,35.8c0.5-0.5,0.4-1.2,0-1.6l-16-15.8c-0.5-0.5-1.2-0.4-1.6,0s-0.4,1.2,0,1.6l16,15.8
		C51.5,36.2,52.3,36.2,52.7,35.8z"/>
	<path class="st0" d="M67.6,31.7c0.2-0.2,0.3-0.5,0.3-0.8l1.2-22.5c0-0.6-0.5-1.2-1.1-1.2c-0.6,0-1.2,0.5-1.2,1.1l-1.2,22.5
		c0,0.6,0.5,1.2,1.1,1.2C67.1,32.1,67.4,31.9,67.6,31.7z"/>
	<path class="st0" d="M47.3,51.5c0.3,0,0.6-0.1,0.7-0.3c0.2-0.2,0.4-0.5,0.3-0.9c0-0.6-0.6-1.1-1.2-1.1l-22.5,1.5
		c-0.6,0-1.1,0.6-1.1,1.2c0,0.6,0.6,1.1,1.2,1.1L47.3,51.5z"/>
	<path class="st0" d="M141.6,128.1l-21.5-33.4l0.1-4.4l15.1-22c0.3-0.4,0.3-1,0-1.4l-4.7-6c-0.1-0.2-0.2-0.5-0.4-0.6
		c0,0-0.1,0-0.1-0.1l-5.1-6.5c0-0.3-0.2-0.6-0.5-0.8c-0.1-0.1-0.2-0.1-0.3-0.1l-5.8-7.3c-0.1-0.2-0.2-0.5-0.4-0.6
		c-0.1,0-0.1-0.1-0.2-0.1l-7.5-9.6c0,0,0,0,0,0l0.3-3.7c0-0.3-0.1-0.6-0.3-0.9s-0.5-0.4-0.8-0.4H89.2c-0.2,0-0.3,0-0.5,0.1
		c0,0,0,0,0,0L66.5,40.5c-0.4,0.2-0.7,0.6-0.7,1l0,2.2l-5.2,2.2c-0.4,0.2-0.7,0.6-0.7,1.1l0,3.2l-4.5,2.4c-0.4,0.2-0.6,0.6-0.6,1
		l0,3.9l-4.2,2.2c-0.4,0.2-0.6,0.6-0.6,1L49.5,75c0,0.2,0.1,0.5,0.2,0.7l10.2,14.5c0.2,0.3,0.5,0.4,0.8,0.5c0.1,0,0.1,0,0.2,0
		c0.2,0,0.5-0.1,0.7-0.2l2.2-1.6l0.5,6.1l-16.9,33.4c-0.1,0.3-0.2,0.6,0,0.9c0.1,0.3,0.4,0.5,0.7,0.7l36.5,14
		c0.1,0.1,0.3,0.1,0.4,0.1c0.5,0,0.9-0.3,1.1-0.7l8.3-20.3l8,20.4c0.2,0.5,0.6,0.7,1.1,0.7c0.1,0,0.3,0,0.4-0.1l37.3-14.4
		c0.3-0.1,0.6-0.4,0.7-0.7C141.9,128.7,141.8,128.4,141.6,128.1z M89.7,32.5h0.2h18.3l-0.2,2.5l-0.2,2.5l-0.4,5.6L92.3,42l-6.7-0.5
		l-0.3,0l-2.5-0.2l-1.1-0.1l-0.7-0.1l3.8-3.7L89.7,32.5z M76.7,53.7l-3.5-0.7l0.8-5.9l0.3-2.5l0.3-2l3.1,0.3
		c0.2,0.1,0.3,0.2,0.5,0.2l0.9,0.1l2.3,0.2l0.1,0l2.5,0.3l1.4,0.2l13.9,1.6l-8.1,10.9l-11.2-2.1L76.7,53.7z M68.1,42.3l15.5-7.1
		l-5.7,5.5l-4.2-0.5c-0.6-0.1-1.2,0.4-1.3,1l-0.6,4.1l-1.2,8.5c-0.1,0.6,0.3,1.2,0.9,1.3l0,0l6.8,1.3l8.2,12.1l-7.5,5.6l-2.4-3.1
		l-6.6-8.7l-1.9-2.5L67.7,59l0.4-14.5c0-0.1,0-0.2-0.1-0.3L68.1,42.3z M65.7,46.3l-0.3,13.1l0,0v0v0c0,0.1,0,0.1,0,0.2
		c0,0.1,0,0.1,0,0.2c0,0.1,0.1,0.2,0.2,0.3l2.1,2.8l1.9,2.5l7.7,10.2l-5.2,4L68,73.8l-1.9-2.5L62.3,66l-0.1-18.3L65.7,46.3z
		 M57.1,54.4l2.7-1.5L60,66.4c0,0.2,0.1,0.5,0.2,0.7l5.3,7.2l1.9,2.5l3.1,4.2l-3.8,3l-0.5-0.7l-1.9-2.5L57,71.3l0.3-13.2
		c0-0.2-0.1-0.4-0.2-0.6L57.1,54.4z M63.6,86.2l-2.4,1.7l-9.3-13.3l0.3-13.2l2.5-1.3l-0.1,11.5v0v0v0c0,0.3,0.1,0.5,0.2,0.7
		l8.7,11.4l1.2,1.5L63.6,86.2z M93.1,120l-8.8,21.5l-34.2-13.2l16.5-32.6c0.1-0.2,0.1-0.4,0.1-0.6L66,87.3l1.1-0.8c0,0,0,0,0,0
		c0,0,0,0,0,0l5.6-4.4h0l7-5.4c0,0,0,0,0,0l9.2-7c0.5-0.4,0.6-1.1,0.3-1.6L81.7,57l9.7,1.8c0.1,0,0.1,0,0.2,0c0.4,0,0.7-0.2,0.9-0.5
		l9.8-13.1c0.1-0.1,0.1-0.2,0.1-0.3l6,0.4c0,0,0.1,0,0.1,0c0.3,0,0.5-0.1,0.8-0.3c0.2-0.2,0.4-0.5,0.4-0.8l0.4-5.8l5.7,7.2l-13.9,18
		c-0.4,0.5-0.3,1.2,0.2,1.6c0.2,0.2,0.5,0.2,0.7,0.2c0.3,0,0.7-0.2,0.9-0.5l13.5-17.6l4.9,6.3l-14.3,19.2c-0.4,0.5-0.3,1.2,0.2,1.6
		c0.2,0.2,0.5,0.2,0.7,0.2c0.4,0,0.7-0.2,0.9-0.5l14-18.7l4.2,5.4L114,80.8c-0.4,0.5-0.3,1.2,0.3,1.6c0.2,0.1,0.4,0.2,0.7,0.2
		c0.4,0,0.7-0.2,0.9-0.5l13.5-18.9l3.5,4.4l-12.6,18.4l-2.4,3.5l-1.5,2.1l-19.6,19.4c-0.1,0.1-0.2,0.2-0.3,0.4l-2.2,5.4L93.1,120z
		 M104,141.6l-8.4-21.6l3.1-7.5l19.2-19.1l0,1.5c0,0.2,0.1,0.5,0.2,0.6l20.9,32.5L104,141.6z"/>
</g>
</svg>
